A1: Counts – POSTS
…
taxi <- read_csv("https://vincentarelbundock.github.io/Rdatasets/csv/modeldata/taxi.csv")

Rows: 10000 Columns: 8
── Column specification ────────────────────────────────────────────────────────
Delimiter: ","
chr (5): tip, company, local, dow, month
dbl (3): rownames, distance, hour

ℹ Use `spec()` to retrieve the full column specification for this data.
ℹ Specify the column types or set `show_col_types = FALSE` to quiet this message.

taxi

# A tibble: 10,000 × 8
   rownames tip   distance company                      local dow   month  hour
      <dbl> <chr>    <dbl> <chr>                        <chr> <chr> <chr> <dbl>
 1        1 yes      17.2  Chicago Independents         no    Thu   Feb      16
 2        2 yes       0.88 City Service                 yes   Thu   Mar       8
 3        3 yes      18.1  other                        no    Mon   Feb      18
 4        4 yes      20.7  Chicago Independents         no    Mon   Apr       8
 5        5 yes      12.2  Chicago Independents         no    Sun   Mar      21
 6        6 yes       0.94 Sun Taxi                     yes   Sat   Apr      23
 7        7 yes      17.5  Flash Cab                    no    Fri   Mar      12
 8        8 yes      17.7  other                        no    Sun   Jan       6
 9        9 yes       1.85 Taxicab Insurance Agency Llc no    Fri   Apr      12
10       10 yes       1.47 City Service                 no    Tue   Mar      14
# ℹ 9,990 more rows
…
Questions

pokemon_summary <- pokemon %>%
group_by(type) %>%
summarize(avg_hp = mean(hp), avg_attack = mean(attack))

pokemon_summary

# A tibble: 154 × 3
   type      avg_hp avg_attack
   <list>     <dbl>      <dbl>
 1 <chr [2]>   64.9       70.5
 2 <chr [1]>   62.7       78.4
 3 <chr [2]>   82         95.3
 4 <chr [2]>   78        130  
 5 <chr [1]>   66.8       71.8
 6 <chr [1]>   53.1       50.4
 7 <chr [2]>   63         70.1
 8 <chr [2]>   53.8       68.3
 9 <chr [2]>   62.0       73.0
10 <chr [1]>   81.1       73.8
# ℹ 144 more rows
…
