Dataset-1 – POSTS
…
cartelstability <- read_csv("https://vincentarelbundock.github.io/Rdatasets/csv/AER/CartelStability.csv")

Rows: 328 Columns: 6
── Column specification ────────────────────────────────────────────────────────
Delimiter: ","
chr (3): cartel, season, ice
dbl (3): rownames, price, quantity

ℹ Use `spec()` to retrieve the full column specification for this data.
ℹ Specify the column types or set `show_col_types = FALSE` to quiet this message.

cartelstability

# A tibble: 328 × 6
   rownames price cartel quantity season          ice  
      <dbl> <dbl> <chr>     <dbl> <chr>           <chr>
 1        1  0.4  yes       13632 Jan  1 - Jan 28 yes  
 2        2  0.4  yes       20035 Jan  1 - Jan 28 yes  
 3        3  0.4  yes       16319 Jan  1 - Jan 28 yes  
 4        4  0.4  yes       12603 Jan  1 - Jan 28 yes  
 5        5  0.4  yes       23079 Jan 29 - Feb 25 yes  
 6        6  0.4  yes       19652 Jan 29 - Feb 25 yes  
 7        7  0.4  yes       16211 Jan 29 - Feb 25 yes  
 8        8  0.4  yes       22914 Jan 29 - Feb 25 yes  
 9        9  0.4  yes       23710 Feb 26 - Mar 26 yes  
10       10  0.35 yes       23036 Feb 26 - Mar 26 yes  
# ℹ 318 more rows
…
Season
Factor
time period

Ice
Factor
presence of ice in the great lakes

Understanding the data some more

cartelstability_modified %>%
  select(season, cartel) %>%
  head(50)

# A tibble: 50 × 2
   season          cartel            
   <fct>           <fct>             
 1 Jan  1 - Jan 28 Cartel operational
 2 Jan  1 - Jan 28 Cartel operational
 3 Jan  1 - Jan 28 Cartel operational
 4 Jan  1 - Jan 28 Cartel operational
 5 Jan 29 - Feb 25 Cartel operational
 6 Jan 29 - Feb 25 Cartel operational
 7 Jan 29 - Feb 25 Cartel operational
 8 Jan 29 - Feb 25 Cartel operational
 9 Feb 26 - Mar 26 Cartel operational
10 Feb 26 - Mar 26 Cartel operational
# ℹ 40 more rows
…
