A1: summaries – POSTS
…
      A1: summaries

Code Replication for mpg dataset

Reading mpg

mpg

# A tibble: 234 × 11
   manufacturer model      displ  year   cyl trans drv     cty   hwy fl    class
   <chr>        <chr>      <dbl> <int> <int> <chr> <chr> <int> <int> <chr> <chr>
 1 audi         a4           1.8  1999     4 auto… f        18    29 p     comp…
 2 audi         a4           1.8  1999     4 manu… f        21    29 p     comp…
 3 audi         a4           2    2008     4 manu… f        20    31 p     comp…
 4 audi         a4           2    2008     4 auto… f        21    30 p     comp…
 5 audi         a4           2.8  1999     6 auto… f        16    26 p     comp…
 6 audi         a4           2.8  1999     6 manu… f        18    26 p     comp…
 7 audi         a4           3.1  2008     6 auto… f        18    27 p     comp…
 8 audi         a4 quattro   1.8  1999     4 manu… 4        18    26 p     comp…
 9 audi         a4 quattro   1.8  1999     4 auto… 4        16    25 p     comp…
10 audi         a4 quattro   2    2008     4 manu… 4        20    28 p     comp…
# ℹ 224 more rows
…
print(head(math_anxiety))

# A tibble: 6 × 6
    Age Gender Grade      AMAS RCMAS Arith
  <dbl> <chr>  <chr>     <dbl> <dbl> <dbl>
1  1378 Boy    Secondary     9    20     6
2  1407 Boy    Secondary    18     8     6
3  1379 Girl   Secondary    23    26     5
4  1428 Girl   Secondary    19    18     7
5  1356 Boy    Secondary    23    20     1
6  1350 Girl   Secondary    27    33     1

math_anxiety

# A tibble: 599 × 6
     Age Gender Grade      AMAS RCMAS Arith
   <dbl> <chr>  <chr>     <dbl> <dbl> <dbl>
 1  1378 Boy    Secondary     9    20     6
 2  1407 Boy    Secondary    18     8     6
 3  1379 Girl   Secondary    23    26     5
 4  1428 Girl   Secondary    19    18     7
 5  1356 Boy    Secondary    23    20     1
 6  1350 Girl   Secondary    27    33     1
 7  1336 Boy    Secondary    22    23     4
 8  1393 Boy    Secondary    17    11     7
 9  1317 Girl   Secondary    28    32     2
10  1348 Boy    Secondary    20    30     6
# ℹ 589 more rows
…
Rows: 599
Columns: 6
$ Age    <int> 11, 11, 11, 11, 11, 11, 11, 11, 10, 11, 11, 13, 12, 11, 11, 11,…
$ Gender <fct> Boy, Boy, Girl, Girl, Boy, Girl, Boy, Boy, Girl, Boy, Boy, Boy,…
$ Grade  <chr> "Secondary", "Secondary", "Secondary", "Secondary", "Secondary"…
$ AMAS   <dbl> 9, 18, 23, 19, 23, 27, 22, 17, 28, 20, 16, 20, 21, 36, 16, 27, …
$ RCMAS  <dbl> 20, 8, 26, 18, 20, 33, 23, 11, 32, 30, 10, 4, 23, 26, 24, 21, 3…
$ Arith  <dbl> 6, 6, 5, 7, 1, 1, 4, 7, 2, 6, 2, 5, 2, 6, 2, 7, 2, 4, 7, 3, 8, …

Reading the data again

mathanxiety_modified

# A tibble: 599 × 6
     Age Gender Grade      AMAS RCMAS Arith
   <int> <fct>  <chr>     <dbl> <dbl> <dbl>
 1    11 Boy    Secondary     9    20     6
 2    11 Boy    Secondary    18     8     6
 3    11 Girl   Secondary    23    26     5
 4    11 Girl   Secondary    19    18     7
 5    11 Boy    Secondary    23    20     1
 6    11 Girl   Secondary    27    33     1
 7    11 Boy    Secondary    22    23     4
 8    11 Boy    Secondary    17    11     7
 9    10 Girl   Secondary    28    32     2
10    11 Boy    Secondary    20    30     6
# ℹ 589 more rows
…
